{
  "images" : [
    {
      "idiom" : "universal",
      "filename" : "2cd43b_d1f9a3f2535046099b9ceab255a7dee1_mv2.png",
      "scale" : "1x"
    },
    {
      "idiom" : "universal",
      "scale" : "2x"
    },
    {
      "idiom" : "universal",
      "scale" : "3x"
    }
  ],
  "info" : {
    "version" : 1,
    "author" : "xcode"
  }
}